%YAML 1.1
%TAG !u! tag:unity3d.com,2011:
--- !u!114 &11400000
MonoBehaviour:
  m_ObjectHideFlags: 0
  m_CorrespondingSourceObject: {fileID: 0}
  m_PrefabInstance: {fileID: 0}
  m_PrefabAsset: {fileID: 0}
  m_GameObject: {fileID: 0}
  m_Enabled: 1
  m_EditorHideFlags: 0
  m_Script: {fileID: 11500000, guid: c6ebad6db4670ae4fae67b768527f845, type: 3}
  m_Name: ManaPotion
  m_EditorClassIdentifier: 
  itemName: 2
  questName: 2
  sprite: {fileID: 21300000, guid: acdee5dcd8d0bcc449188e8597a03160, type: 3}
  quantity: 1
  prefab: {fileID: 8318661683844849570, guid: e59ab5b69b46f064384a82c1e90a939a, type: 3}
