%YAML 1.1
%TAG !u! tag:unity3d.com,2011:
--- !u!114 &11400000
MonoBehaviour:
  m_ObjectHideFlags: 0
  m_CorrespondingSourceObject: {fileID: 0}
  m_PrefabInstance: {fileID: 0}
  m_PrefabAsset: {fileID: 0}
  m_GameObject: {fileID: 0}
  m_Enabled: 1
  m_EditorHideFlags: 0
  m_Script: {fileID: 11500000, guid: 87a81e1b09f88384798b687ea4d32b08, type: 3}
  m_Name: FadeConfig
  m_EditorClassIdentifier: 
  items:
    fade: 0
    normal: 1
    duration: 1
    ease: 4
